No APIs, No Problem
…
# Your boss wants 49 Excel sheets, but why?

<img src="img/office.gif" width="125%" height="125%" align="center"/>

---

# Data dump

```r
sales_data
```

```
## # A tibble: 9,994 x 21
##    Person `Order ID` `Order Date`        `Ship Date`         `Ship Mode`
##    <chr>  <chr>      <dttm>              <dttm>              <chr>      
##  1 Cassa… CA-2016-1… 2016-11-08 00:00:00 2016-11-11 00:00:00 Second Cla…
##  2 Cassa… CA-2016-1… 2016-11-08 00:00:00 2016-11-11 00:00:00 Second Cla…
##  3 Anna … CA-2016-1… 2016-06-12 00:00:00 2016-06-16 00:00:00 Second Cla…
##  4 Cassa… US-2015-1… 2015-10-11 00:00:00 2015-10-18 00:00:00 Standard C…
##  5 Cassa… US-2015-1… 2015-10-11 00:00:00 2015-10-18 00:00:00 Standard C…
##  6 Anna … CA-2014-1… 2014-06-09 00:00:00 2014-06-14 00:00:00 Standard C…
##  7 Anna … CA-2014-1… 2014-06-09 00:00:00 2014-06-14 00:00:00 Standard C…
##  8 Anna … CA-2014-1… 2014-06-09 00:00:00 2014-06-14 00:00:00 Standard C…
##  9 Anna … CA-2014-1… 2014-06-09 00:00:00 2014-06-14 00:00:00 Standard C…
## 10 Anna … CA-2014-1… 2014-06-09 00:00:00 2014-06-14 00:00:00 Standard C…
## # … with 9,984 more rows, and 16 more variables: `Customer ID` <chr>,
## #   `Customer Name` <chr>, Segment <chr>, Country <chr>, City <chr>,
## #   State <chr>, `Postal Code` <dbl>, Region <chr>, `Product ID` <chr>,
## #   Category <chr>, `Sub-Category` <chr>, `Product Name` <chr>,
## #   Sales <dbl>, Quantity <dbl>, Discount <dbl>, Profit <dbl>
```
…
